limits.c:33:6:limits_init	32	static
limits.c:116:6:limits_disable	0	static
limits.c:131:9:limits_get_state	8	static
limits.c:172:6:EXTI15_10_IRQHandler	8	static
limits.c:260:6:limits_go_home	120	static
limits.c:456:6:limits_soft_check	8	static
