stepper.c:310:6:st_wake_up	24	static
stepper.c:386:6:st_go_idle	16	static
stepper.c:490:6:TIM2_IRQHandler	24	static
stepper.c:813:6:TIM3_IRQHandler	4	static
stepper.c:838:6:st_generate_step_dir_invert_masks	0	static
stepper.c:851:6:st_reset	24	static
stepper.c:887:6:stepper_init	48	static
stepper.c:932:6:st_update_plan_block_parameters	16	static
stepper.c:1002:6:st_prep_buffer	104	static
stepper.c:1428:7:st_get_realtime_rate	0	static
stepper.c:1436:6:TIM_Configuration	32	static
