serial.c:50:9:serial_get_rx_buffer_available	0	static
serial.c:60:9:serial_get_rx_buffer_count	0	static
serial.c:70:9:serial_get_tx_buffer_count	0	static
serial.c:77:6:serial_init	0	static
serial.c:100:6:serial_write	0	static
serial.c:146:9:serial_read	0	static
serial.c:163:6:HandleUartIT	4	static
serial.c:285:6:serial_reset_read_buffer	0	static
