system.c:24:6:system_init	24	static
system.c:85:6:mpg_init	24	static
system.c:113:9:get_jog_state	8	static
system.c:129:9:system_control_get_state	8	static
system.c:182:6:EXTI9_5_IRQHandler	8	static
system.c:226:9:system_check_safety_door_ajar	0	static
system.c:237:6:system_execute_startup	16	static
system.c:262:9:system_execute_line	32	static
system.c:494:6:system_flag_wco_change	8	static
system.c:506:7:system_convert_axis_steps_to_mpos	8	static
system.c:524:6:system_convert_array_steps_to_mpos	16	static
system.c:548:9:system_check_travel_limits	24	static
system.c:573:6:system_set_exec_state_flag	0	static
system.c:592:6:system_clear_exec_state_flag	0	static
system.c:611:6:system_set_exec_alarm	0	static
system.c:630:6:system_clear_exec_alarm	0	static
system.c:649:6:system_set_exec_motion_override_flag	0	static
system.c:668:6:system_set_exec_accessory_override_flag	0	static
system.c:687:6:system_clear_exec_motion_overrides	0	static
system.c:706:6:system_clear_exec_accessory_overrides	0	static
system.c:724:6:system_set_exec_mpg	0	static
system.c:730:6:system_clear_exec_mpg	0	static
